module gitlab.com/alireza_fallah/cartesian_agents

go 1.17

require (
	github.com/bradfitz/gomemcache v0.0.0-20230611145640-acc696258285
	github.com/gin-gonic/gin v1.7.7
	github.com/go-playground/validator/v10 v10.4.1
)

require (
	github.com/gin-contrib/sse v0.1.0 // indirect
	github.com/go-playground/locales v0.13.0 // indirect
	github.com/go-playground/universal-translator v0.17.0 // indirect
	github.com/golang/protobuf v1.3.3 // indirect
	github.com/json-iterator/go v1.1.9 // indirect
	github.com/kr/pretty v0.1.0 // indirect
	github.com/leodido/go-urn v1.2.0 // indirect
	github.com/mattn/go-isatty v0.0.12 // indirect
	github.com/modern-go/concurrent v0.0.0-20180228061459-e0a39a4cb421 // indirect
	github.com/modern-go/reflect2 v0.0.0-20180701023420-4b7aa43c6742 // indirect
	github.com/stretchr/testify v1.7.0 // indirect
	github.com/ugorji/go/codec v1.1.7 // indirect
	golang.org/x/crypto v0.0.0-20210921155107-089bfa567519 // indirect
	golang.org/x/sys v0.0.0-20210615035016-665e8c7367d1 // indirect
	gopkg.in/check.v1 v1.0.0-20180628173108-788fd7840127 // indirect
	gopkg.in/yaml.v2 v2.2.8 // indirect
)
